0,6.072,1,1
0,5.919,1,1
0,5.77,1,1
0,6.061,1,1
0,4.931,1,1
0,7.635,1,1
0,6.12,1,1
0,6.178,1,1
0,4.886,1,1
0,6.104,1,1
0,6.096,1,1
0,6.078,1,1
0,6.105,1,1
0,6.221,1,1
0,5.778,1,1
0,6.037,1,1
0,6.094,1,1
0,5.744,1,1
0,6.13,1,1
0,4.9,1,1
0,6.148,1,1
0,4.883,1,1
0,6.075,1,1
0,6.164,1,1
0,4.882,1,1
