0,6.151,1,4
0,6.173,1,4
0,6.192,1,4
0,6.096,1,4
0,6.171,1,4
0,6.166,1,4
0,5.698,1,4
0,6.107,1,4
0,6.169,1,4
0,5.596,1,4
0,6.191,1,4
0,6.05,1,4
0,6.09,1,4
0,6.15,1,4
0,6.179,1,4
0,6.109,1,4
0,6.14,1,4
0,6.161,1,4
0,6.07,1,4
0,5.709,1,4
0,6.164,1,4
0,6.18,1,4
0,6.149,1,4
0,6.174,1,4
0,6.242,1,4
