0,5.252,2,9
0,4.925,2,9
0,5.257,2,9
0,5.364,2,9
0,4.887,2,9
0,5.072,2,9
0,5.296,2,9
0,4.899,2,9
0,5.471,2,9
0,5.319,2,9
0,5.416,2,9
0,5.379,2,9
0,4.627,2,9
0,5.627,2,9
0,5.411,2,9
0,5.2,2,9
0,5.27,2,9
0,5.386,2,9
0,4.567,2,9
0,5.359,2,9
0,4.658,2,9
0,5.34,2,9
0,5.424,2,9
0,5.302,2,9
0,5.437,2,9
