0,3.727,2,3
0,3.905,2,3
0,4.568,2,3
0,4.452,2,3
0,3.532,2,3
0,4.249,2,3
0,3.513,2,3
0,3.913,2,3
0,4.363,2,3
0,4.422,2,3
0,4.292,2,3
0,4.51,2,3
0,4.495,2,3
0,4.5,2,3
0,3.877,2,3
0,4.431,2,3
0,4.454,2,3
0,4.28,2,3
0,4.504,2,3
0,4.356,2,3
0,4.578,2,3
0,4.433,2,3
0,4.31,2,3
0,4.068,2,3
0,4.194,2,3
