0,6.515,2,2
0,6.517,2,2
0,6.528,2,2
0,6.529,2,2
0,6.526,2,2
0,6.459,2,2
0,6.601,2,2
0,6.496,2,2
0,5.872,2,2
0,5.712,2,2
0,6.495,2,2
0,6.525,2,2
0,5.664,2,2
0,6.504,2,2
0,6.493,2,2
0,5.758,2,2
0,5.644,2,2
0,6.476,2,2
0,5.717,2,2
0,6.207,2,2
0,6.513,2,2
0,6.598,2,2
0,6.53,2,2
0,5.954,2,2
0,6.502,2,2
