0,6.17,4,4
0,6.032,4,4
0,6.141,4,4
0,6.187,4,4
0,6.14,4,4
0,6.255,4,4
0,6.093,4,4
0,6.166,4,4
0,6.169,4,4
0,6.154,4,4
0,6.195,4,4
0,6.153,4,4
0,6.156,4,4
0,6.172,4,4
0,6.107,4,4
0,6.107,4,4
0,6.168,4,4
0,6.079,4,4
0,6.149,4,4
0,6.103,4,4
