0,5.356,4,0
0,6.496,4,0
0,6.576,4,0
0,6.524,4,0
0,6.512,4,0
0,6.617,4,0
0,5.441,4,0
0,6.497,4,0
0,6.048,4,0
0,6.288,4,0
0,6.741,4,0
0,6.283,4,0
0,6.502,4,0
0,6.447,4,0
0,6.585,4,0
0,6.531,4,0
0,6.664,4,0
0,6.226,4,0
0,6.663,4,0
0,6.624,4,0
