0,6.162,8,4
0,6.156,8,4
0,6.171,8,4
0,6.181,8,4
0,6.203,8,4
0,6.108,8,4
0,6.269,8,4
0,6.327,8,4
0,6.182,8,9
0,6.19,8,9
0,6.342,8,9
0,6.202,8,9
0,6.194,8,9
0,6.144,8,9
0,6.105,8,9
0,6.236,8,9
0,6.172,8,9
0,6.161,8,9
0,6.182,8,9
0,6.219,8,9
