0,5.548,8,9
0,5.404,8,9
0,5.534,8,9
0,5.523,8,9
0,5.299,8,9
0,5.496,8,9
0,5.6,8,9
0,5.476,8,9
0,5.658,8,9
0,5.577,8,9
0,5.553,8,9
0,5.566,8,9
0,5.445,8,9
0,5.566,8,9
0,5.519,8,9
0,5.515,8,9
0,5.31,8,9
0,5.73,8,9
0,5.483,8,9
0,5.482,8,9
